what’s new in the tidyverse in 2023?
…
setup: penguins

library(palmerpenguins)
penguins

# A tibble: 344 × 8
  species island   bill_length_mm bill_depth_mm flipper_length_mm
  <fct>   <fct>             <dbl>         <dbl>             <int>
1 Adelie  Torgers…           39.1          18.7               181
2 Adelie  Torgers…           39.5          17.4               186
3 Adelie  Torgers…           40.3          18                 195
4 Adelie  Torgers…           NA            NA                  NA
5 Adelie  Torgers…           36.7          19.3               193
6 Adelie  Torgers…           39.3          20.6               190
# ℹ 338 more rows
# ℹ 3 more variables: body_mass_g <int>, sex <fct>, year <int>
…
a typical tidyverse workflow

penguins |>
  group_by(species, sex) |>
  summarize(mean_bw = mean(body_mass_g))

`summarise()` has grouped output by 'species'. You can override
using the `.groups` argument.

# A tibble: 8 × 3
# Groups:   species [3]
  species   sex    mean_bw
  <fct>     <fct>    <dbl>
1 Adelie    female   3369.
2 Adelie    male     4043.
3 Adelie    <NA>       NA 
4 Chinstrap female   3527.
5 Chinstrap male     3939.
6 Gentoo    female   4680.
# ℹ 2 more rows
…
R’s default conflict resolution gives precedence to the most recently loaded package

Before loading tidyverse - calling filter() uses stats::filter():

penguins |>
  filter(species == "Adelie")

Error in eval(expr, envir, enclos): object 'species' not found

After loading tidyverse - calling filter() silently uses dplyr::filter():

penguins |>
  filter(species == "Adelie")

# A tibble: 152 × 8
  species island   bill_length_mm bill_depth_mm flipper_length_mm
  <fct>   <fct>             <dbl>         <dbl>             <int>
1 Adelie  Torgers…           39.1          18.7               181
2 Adelie  Torgers…           39.5          17.4               186
3 Adelie  Torgers…           40.3          18                 195
# ℹ 149 more rows
# ℹ 3 more variables: body_mass_g <int>, sex <fct>, year <int>
…
conflict resolution with conflicted - option 1

Pick the one you want with :::

penguins |>
  dplyr::filter(species == "Adelie")

# A tibble: 152 × 8
  species island   bill_length_mm bill_depth_mm flipper_length_mm
  <fct>   <fct>             <dbl>         <dbl>             <int>
1 Adelie  Torgers…           39.1          18.7               181
2 Adelie  Torgers…           39.5          17.4               186
3 Adelie  Torgers…           40.3          18                 195
# ℹ 149 more rows
# ℹ 3 more variables: body_mass_g <int>, sex <fct>, year <int>

conflict resolution with conflicted - option 2

declare a preference with conflicts_prefer():

conflicts_prefer(dplyr::filter)

[conflicted] Will prefer dplyr::filter over any other package.

penguins |>
  filter(species == "Adelie")

# A tibble: 152 × 8
  species island   bill_length_mm bill_depth_mm flipper_length_mm
  <fct>   <fct>             <dbl>         <dbl>             <int>
1 Adelie  Torgers…           39.1          18.7               181
2 Adelie  Torgers…           39.5          17.4               186
3 Adelie  Torgers…           40.3          18                 195
# ℹ 149 more rows
# ℹ 3 more variables: body_mass_g <int>, sex <fct>, year <int>
…
join_by()

with by:

penguins |>
  left_join(
    islands, 
    by = c("island" = "name")
  ) |>
  select(species, island, coordinates)

# A tibble: 344 × 3
  species island    coordinates   
  <fct>   <chr>     <chr>         
1 Adelie  Torgersen 64°46′S 64°5′W
2 Adelie  Torgersen 64°46′S 64°5′W
3 Adelie  Torgersen 64°46′S 64°5′W
4 Adelie  Torgersen 64°46′S 64°5′W
5 Adelie  Torgersen 64°46′S 64°5′W
6 Adelie  Torgersen 64°46′S 64°5′W
# ℹ 338 more rows

with join_by():

penguins |>
  left_join(
    islands, 
    by = join_by(island == name)
  ) |>
  select(species, island, coordinates)

# A tibble: 344 × 3
  species island    coordinates   
  <fct>   <chr>     <chr>         
1 Adelie  Torgersen 64°46′S 64°5′W
2 Adelie  Torgersen 64°46′S 64°5′W
3 Adelie  Torgersen 64°46′S 64°5′W
4 Adelie  Torgersen 64°46′S 64°5′W
5 Adelie  Torgersen 64°46′S 64°5′W
6 Adelie  Torgersen 64°46′S 64°5′W
# ℹ 338 more rows
…
case_when()

penguins |>
  mutate(
    bm_cat = case_when(
      is.na(body_mass_g) ~ NA,
      body_mass_g < 3550 ~ "Small",
      between(body_mass_g, 3550, 4750) ~ "Medium",
      .default = "Large"
    )
  ) |>
  relocate(body_mass_g, bm_cat)

# A tibble: 344 × 9
  body_mass_g bm_cat species island  bill_length_mm bill_depth_mm
        <int> <chr>  <fct>   <fct>            <dbl>         <dbl>
1        3750 Medium Adelie  Torger…           39.1          18.7
2        3800 Medium Adelie  Torger…           39.5          17.4
3        3250 Small  Adelie  Torger…           40.3          18  
4          NA <NA>   Adelie  Torger…           NA            NA  
5        3450 Small  Adelie  Torger…           36.7          19.3
6        3650 Medium Adelie  Torger…           39.3          20.6
# ℹ 338 more rows
# ℹ 3 more variables: flipper_length_mm <int>, sex <fct>,
#   year <int>

if_else()

penguins |>
  mutate(
    bm_unit = if_else(!is.na(body_mass_g), paste(body_mass_g, "g"), NA)
  ) |>
  relocate(body_mass_g, bm_unit)

# A tibble: 344 × 9
  body_mass_g bm_unit species island bill_length_mm bill_depth_mm
        <int> <chr>   <fct>   <fct>           <dbl>         <dbl>
1        3750 3750 g  Adelie  Torge…           39.1          18.7
2        3800 3800 g  Adelie  Torge…           39.5          17.4
3        3250 3250 g  Adelie  Torge…           40.3          18  
4          NA <NA>    Adelie  Torge…           NA            NA  
5        3450 3450 g  Adelie  Torge…           36.7          19.3
6        3650 3650 g  Adelie  Torge…           39.3          20.6
# ℹ 338 more rows
# ℹ 3 more variables: flipper_length_mm <int>, sex <fct>,
#   year <int>
…
